{
    "version" : "1.1.2",
    "project" : {
        "name" : "provingground-build",
        "directory" : "/home/gadgil/code/ProvingGround/project",
        "sources" : [
            "/home/gadgil/code/ProvingGround/project/src/main/scala-2.12",
            "/home/gadgil/code/ProvingGround/project/src/main/scala",
            "/home/gadgil/code/ProvingGround/project/src/main/java",
            "/home/gadgil/code/ProvingGround/project/src/main/scala-sbt-1.0",
            "/home/gadgil/code/ProvingGround/project/target/scala-2.12/sbt-1.0/src_managed/main"
        ],
        "dependencies" : [
        ],
        "classpath" : [
            "/home/gadgil/.ivy2/cache/scala_2.12/sbt_1.0/ch.epfl.scala/sbt-bloop/jars/sbt-bloop-1.4.0-RC1.jar",
            "/home/gadgil/.ivy2/cache/net.java.dev.jna/jna/jars/jna-4.5.0.jar",
            "/home/gadgil/.ivy2/cache/net.java.dev.jna/jna-platform/jars/jna-platform-4.5.0.jar",
            "/home/gadgil/.ivy2/cache/com.google.code.gson/gson/jars/gson-2.7.jar",
            "/home/gadgil/.ivy2/cache/com.google.code.findbugs/jsr305/jars/jsr305-3.0.2.jar",
            "/home/gadgil/.ivy2/cache/scala_2.12/sbt_1.0/org.scalameta/sbt-metals/jars/sbt-metals-0.7.6.jar",
            "/home/gadgil/.ivy2/cache/scala_2.12/sbt_1.0/org.scala-js/sbt-scalajs/jars/sbt-scalajs-0.6.31.jar",
            "/home/gadgil/.ivy2/cache/org.scala-js/scalajs-tools_2.12/jars/scalajs-tools_2.12-0.6.31.jar",
            "/home/gadgil/.sbt/boot/scala-2.12.7/lib/scala-library.jar",
            "/home/gadgil/.ivy2/cache/org.scala-js/scalajs-ir_2.12/jars/scalajs-ir_2.12-0.6.31.jar",
            "/home/gadgil/.ivy2/cache/com.google.javascript/closure-compiler/jars/closure-compiler-v20190513.jar",
            "/home/gadgil/.ivy2/cache/com.google.javascript/closure-compiler-externs/jars/closure-compiler-externs-v20190513.jar",
            "/home/gadgil/.ivy2/cache/args4j/args4j/bundles/args4j-2.0.26.jar",
            "/home/gadgil/.ivy2/cache/com.google.errorprone/error_prone_annotations/jars/error_prone_annotations-2.3.1.jar",
            "/home/gadgil/.ivy2/cache/com.google.guava/guava/bundles/guava-25.1-jre.jar",
            "/home/gadgil/.ivy2/cache/org.checkerframework/checker-qual/jars/checker-qual-2.0.0.jar",
            "/home/gadgil/.ivy2/cache/com.google.j2objc/j2objc-annotations/jars/j2objc-annotations-1.1.jar",
            "/home/gadgil/.ivy2/cache/org.codehaus.mojo/animal-sniffer-annotations/jars/animal-sniffer-annotations-1.14.jar",
            "/home/gadgil/.ivy2/cache/com.google.jsinterop/jsinterop-annotations/jars/jsinterop-annotations-1.0.0.jar",
            "/home/gadgil/.ivy2/cache/com.googlecode.json-simple/json-simple/bundles/json-simple-1.1.1.jar",
            "/home/gadgil/.ivy2/cache/org.scala-js/scalajs-js-envs_2.12/jars/scalajs-js-envs_2.12-0.6.31.jar",
            "/home/gadgil/.ivy2/cache/org.mozilla/rhino/jars/rhino-1.7.6.jar",
            "/home/gadgil/.ivy2/cache/org.webjars/envjs/jars/envjs-1.2.jar",
            "/home/gadgil/.ivy2/cache/org.scala-js/scalajs-sbt-test-adapter_2.12/jars/scalajs-sbt-test-adapter_2.12-0.6.31.jar",
            "/home/gadgil/.ivy2/cache/org.scala-sbt/test-interface/jars/test-interface-1.0.jar",
            "/home/gadgil/.ivy2/cache/scala_2.12/sbt_1.0/org.portable-scala/sbt-platform-deps/jars/sbt-platform-deps-1.0.0.jar",
            "/home/gadgil/.ivy2/cache/scala_2.12/sbt_1.0/org.portable-scala/sbt-scalajs-crossproject/jars/sbt-scalajs-crossproject-0.6.0.jar",
            "/home/gadgil/.ivy2/cache/scala_2.12/sbt_1.0/org.portable-scala/sbt-crossproject/jars/sbt-crossproject-0.6.0.jar",
            "/home/gadgil/.ivy2/cache/scala_2.12/sbt_1.0/com.eed3si9n/sbt-assembly/jars/sbt-assembly-0.14.5.jar",
            "/home/gadgil/.ivy2/cache/org.scalactic/scalactic_2.12/bundles/scalactic_2.12-3.0.1.jar",
            "/home/gadgil/.sbt/boot/scala-2.12.7/lib/scala-reflect.jar",
            "/home/gadgil/.ivy2/cache/org.pantsbuild/jarjar/jars/jarjar-1.6.4.jar",
            "/home/gadgil/.ivy2/cache/org.apache.ant/ant/jars/ant-1.9.9.jar",
            "/home/gadgil/.ivy2/cache/org.apache.ant/ant-launcher/jars/ant-launcher-1.9.9.jar",
            "/home/gadgil/.ivy2/cache/org.ow2.asm/asm/jars/asm-5.2.jar",
            "/home/gadgil/.ivy2/cache/org.ow2.asm/asm-commons/jars/asm-commons-5.2.jar",
            "/home/gadgil/.ivy2/cache/org.ow2.asm/asm-tree/jars/asm-tree-5.2.jar",
            "/home/gadgil/.ivy2/cache/org.apache.maven/maven-plugin-api/jars/maven-plugin-api-3.3.9.jar",
            "/home/gadgil/.ivy2/cache/org.apache.maven/maven-model/jars/maven-model-3.3.9.jar",
            "/home/gadgil/.ivy2/cache/org.codehaus.plexus/plexus-utils/jars/plexus-utils-3.0.22.jar",
            "/home/gadgil/.ivy2/cache/org.apache.commons/commons-lang3/jars/commons-lang3-3.4.jar",
            "/home/gadgil/.ivy2/cache/org.apache.maven/maven-artifact/jars/maven-artifact-3.3.9.jar",
            "/home/gadgil/.ivy2/cache/org.eclipse.sisu/org.eclipse.sisu.plexus/eclipse-plugins/org.eclipse.sisu.plexus-0.3.2.jar",
            "/home/gadgil/.ivy2/cache/javax.enterprise/cdi-api/jars/cdi-api-1.0.jar",
            "/home/gadgil/.ivy2/cache/javax.annotation/jsr250-api/jars/jsr250-api-1.0.jar",
            "/home/gadgil/.ivy2/cache/javax.inject/javax.inject/jars/javax.inject-1.jar",
            "/home/gadgil/.ivy2/cache/org.eclipse.sisu/org.eclipse.sisu.inject/eclipse-plugins/org.eclipse.sisu.inject-0.3.2.jar",
            "/home/gadgil/.ivy2/cache/org.codehaus.plexus/plexus-component-annotations/jars/plexus-component-annotations-1.5.5.jar",
            "/home/gadgil/.ivy2/cache/org.codehaus.plexus/plexus-classworlds/bundles/plexus-classworlds-2.5.2.jar",
            "/home/gadgil/.ivy2/cache/org.scala-sbt/sbt/jars/sbt-1.2.8.jar",
            "/home/gadgil/.ivy2/cache/org.scala-sbt/main_2.12/jars/main_2.12-1.2.8.jar",
            "/home/gadgil/.ivy2/cache/org.scala-sbt/logic_2.12/jars/logic_2.12-1.2.8.jar",
            "/home/gadgil/.ivy2/cache/org.scala-sbt/collections_2.12/jars/collections_2.12-1.2.8.jar",
            "/home/gadgil/.ivy2/cache/com.eed3si9n/sjson-new-scalajson_2.12/jars/sjson-new-scalajson_2.12-0.8.2.jar",
            "/home/gadgil/.ivy2/cache/com.eed3si9n/sjson-new-core_2.12/jars/sjson-new-core_2.12-0.8.2.jar",
            "/home/gadgil/.ivy2/cache/com.eed3si9n/shaded-scalajson_2.12/jars/shaded-scalajson_2.12-1.0.0-M4.jar",
            "/home/gadgil/.ivy2/cache/org.spire-math/jawn-parser_2.12/jars/jawn-parser_2.12-0.10.4.jar",
            "/home/gadgil/.ivy2/cache/org.scala-sbt/util-position_2.12/jars/util-position_2.12-1.2.4.jar",
            "/home/gadgil/.ivy2/cache/org.scala-sbt/util-relation_2.12/jars/util-relation_2.12-1.2.4.jar",
            "/home/gadgil/.ivy2/cache/org.scala-sbt/actions_2.12/jars/actions_2.12-1.2.8.jar",
            "/home/gadgil/.ivy2/cache/org.scala-sbt/completion_2.12/jars/completion_2.12-1.2.8.jar",
            "/home/gadgil/.ivy2/cache/jline/jline/jars/jline-2.14.6.jar",
            "/home/gadgil/.ivy2/cache/org.scala-sbt/io_2.12/jars/io_2.12-1.2.2.jar",
            "/home/gadgil/.ivy2/cache/com.swoval/apple-file-events/jars/apple-file-events-1.3.2.jar",
            "/home/gadgil/.ivy2/cache/org.scala-sbt/util-control_2.12/jars/util-control_2.12-1.2.4.jar",
            "/home/gadgil/.ivy2/cache/org.scala-sbt/run_2.12/jars/run_2.12-1.2.8.jar",
            "/home/gadgil/.ivy2/cache/org.scala-sbt/util-logging_2.12/jars/util-logging_2.12-1.2.4.jar",
            "/home/gadgil/.ivy2/cache/org.scala-sbt/util-interface/jars/util-interface-1.2.4.jar",
            "/home/gadgil/.ivy2/cache/org.apache.logging.log4j/log4j-api/jars/log4j-api-2.11.1.jar",
            "/home/gadgil/.ivy2/cache/org.apache.logging.log4j/log4j-core/jars/log4j-core-2.11.1.jar",
            "/home/gadgil/.ivy2/cache/com.lmax/disruptor/jars/disruptor-3.4.2.jar",
            "/home/gadgil/.ivy2/cache/org.scala-sbt/zinc-classpath_2.12/jars/zinc-classpath_2.12-1.2.5.jar",
            "/home/gadgil/.sbt/boot/scala-2.12.7/lib/scala-compiler.jar",
            "/home/gadgil/.ivy2/cache/org.scala-lang.modules/scala-xml_2.12/bundles/scala-xml_2.12-1.0.6.jar",
            "/home/gadgil/.ivy2/cache/org.scala-sbt/compiler-interface/jars/compiler-interface-1.2.5.jar",
            "/home/gadgil/.ivy2/cache/org.scala-sbt/launcher-interface/jars/launcher-interface-1.0.4.jar",
            "/home/gadgil/.ivy2/cache/org.scala-sbt/task-system_2.12/jars/task-system_2.12-1.2.8.jar",
            "/home/gadgil/.ivy2/cache/org.scala-sbt/tasks_2.12/jars/tasks_2.12-1.2.8.jar",
            "/home/gadgil/.ivy2/cache/org.scala-sbt/util-cache_2.12/jars/util-cache_2.12-1.2.4.jar",
            "/home/gadgil/.ivy2/cache/com.eed3si9n/sjson-new-murmurhash_2.12/jars/sjson-new-murmurhash_2.12-0.8.2.jar",
            "/home/gadgil/.ivy2/cache/org.scala-sbt/testing_2.12/jars/testing_2.12-1.2.8.jar",
            "/home/gadgil/.ivy2/cache/org.scala-sbt/test-agent/jars/test-agent-1.2.8.jar",
            "/home/gadgil/.ivy2/cache/org.scala-sbt/util-tracking_2.12/jars/util-tracking_2.12-1.2.4.jar",
            "/home/gadgil/.ivy2/cache/org.scala-sbt/zinc-apiinfo_2.12/jars/zinc-apiinfo_2.12-1.2.5.jar",
            "/home/gadgil/.ivy2/cache/org.scala-sbt/compiler-bridge_2.12/jars/compiler-bridge_2.12-1.2.5.jar",
            "/home/gadgil/.ivy2/cache/org.scala-sbt/zinc-classfile_2.12/jars/zinc-classfile_2.12-1.2.5.jar",
            "/home/gadgil/.ivy2/cache/org.scala-sbt/librarymanagement-core_2.12/jars/librarymanagement-core_2.12-1.2.4.jar",
            "/home/gadgil/.ivy2/cache/com.jcraft/jsch/jars/jsch-0.1.54.jar",
            "/home/gadgil/.ivy2/cache/com.eed3si9n/gigahorse-okhttp_2.12/jars/gigahorse-okhttp_2.12-0.3.0.jar",
            "/home/gadgil/.ivy2/cache/com.eed3si9n/gigahorse-core_2.12/jars/gigahorse-core_2.12-0.3.0.jar",
            "/home/gadgil/.ivy2/cache/com.typesafe/ssl-config-core_2.12/bundles/ssl-config-core_2.12-0.2.2.jar",
            "/home/gadgil/.ivy2/cache/com.typesafe/config/bundles/config-1.2.0.jar",
            "/home/gadgil/.ivy2/cache/org.reactivestreams/reactive-streams/jars/reactive-streams-1.0.0.jar",
            "/home/gadgil/.ivy2/cache/org.slf4j/slf4j-api/jars/slf4j-api-1.7.25.jar",
            "/home/gadgil/.ivy2/cache/com.squareup.okhttp3/okhttp/jars/okhttp-3.7.0.jar",
            "/home/gadgil/.ivy2/cache/com.squareup.okio/okio/jars/okio-1.12.0.jar",
            "/home/gadgil/.ivy2/cache/com.squareup.okhttp3/okhttp-urlconnection/jars/okhttp-urlconnection-3.7.0.jar",
            "/home/gadgil/.ivy2/cache/org.scala-sbt/zinc-ivy-integration_2.12/jars/zinc-ivy-integration_2.12-1.2.5.jar",
            "/home/gadgil/.ivy2/cache/org.scala-sbt/zinc-compile-core_2.12/jars/zinc-compile-core_2.12-1.2.5.jar",
            "/home/gadgil/.ivy2/cache/org.scala-lang.modules/scala-parser-combinators_2.12/bundles/scala-parser-combinators_2.12-1.0.5.jar",
            "/home/gadgil/.ivy2/cache/org.scala-sbt/zinc_2.12/jars/zinc_2.12-1.2.5.jar",
            "/home/gadgil/.ivy2/cache/org.scala-sbt/zinc-core_2.12/jars/zinc-core_2.12-1.2.5.jar",
            "/home/gadgil/.ivy2/cache/org.scala-sbt/zinc-persist_2.12/jars/zinc-persist_2.12-1.2.5.jar",
            "/home/gadgil/.ivy2/cache/com.trueaccord.scalapb/scalapb-runtime_2.12/jars/scalapb-runtime_2.12-0.6.0.jar",
            "/home/gadgil/.ivy2/cache/com.trueaccord.lenses/lenses_2.12/jars/lenses_2.12-0.4.12.jar",
            "/home/gadgil/.ivy2/cache/com.lihaoyi/fastparse_2.12/jars/fastparse_2.12-0.4.2.jar",
            "/home/gadgil/.ivy2/cache/com.lihaoyi/fastparse-utils_2.12/jars/fastparse-utils_2.12-0.4.2.jar",
            "/home/gadgil/.ivy2/cache/com.lihaoyi/sourcecode_2.12/jars/sourcecode_2.12-0.1.3.jar",
            "/home/gadgil/.ivy2/cache/com.google.protobuf/protobuf-java/bundles/protobuf-java-3.3.1.jar",
            "/home/gadgil/.ivy2/cache/org.scala-sbt/sbinary_2.12/jars/sbinary_2.12-0.5.0.jar",
            "/home/gadgil/.ivy2/cache/org.scala-sbt/main-settings_2.12/jars/main-settings_2.12-1.2.8.jar",
            "/home/gadgil/.ivy2/cache/org.scala-sbt/command_2.12/jars/command_2.12-1.2.8.jar",
            "/home/gadgil/.ivy2/cache/org.scala-sbt/protocol_2.12/jars/protocol_2.12-1.2.8.jar",
            "/home/gadgil/.ivy2/cache/org.scala-sbt.ipcsocket/ipcsocket/jars/ipcsocket-1.0.0.jar",
            "/home/gadgil/.ivy2/cache/org.scala-sbt/template-resolver/jars/template-resolver-0.1.jar",
            "/home/gadgil/.ivy2/cache/org.scala-sbt/core-macros_2.12/jars/core-macros_2.12-1.2.8.jar",
            "/home/gadgil/.ivy2/cache/org.scala-sbt/scripted-sbt-redux_2.12/jars/scripted-sbt-redux_2.12-1.2.8.jar",
            "/home/gadgil/.ivy2/cache/org.scala-sbt/util-scripted_2.12/jars/util-scripted_2.12-1.2.4.jar",
            "/home/gadgil/.ivy2/cache/org.scala-sbt/scripted-plugin_2.12/jars/scripted-plugin_2.12-1.2.8.jar",
            "/home/gadgil/.ivy2/cache/org.apache.logging.log4j/log4j-slf4j-impl/jars/log4j-slf4j-impl-2.11.1.jar",
            "/home/gadgil/.ivy2/cache/com.github.cb372/scalacache-caffeine_2.12/jars/scalacache-caffeine_2.12-0.20.0.jar",
            "/home/gadgil/.ivy2/cache/com.github.cb372/scalacache-core_2.12/jars/scalacache-core_2.12-0.20.0.jar",
            "/home/gadgil/.ivy2/cache/com.github.ben-manes.caffeine/caffeine/jars/caffeine-2.5.6.jar",
            "/home/gadgil/.ivy2/cache/org.scala-sbt/librarymanagement-ivy_2.12/jars/librarymanagement-ivy_2.12-1.2.4.jar",
            "/home/gadgil/.ivy2/cache/org.scala-sbt.ivy/ivy/jars/ivy-2.3.0-sbt-cb9cc189e9f3af519f9f102e6c5d446488ff6832.jar",
            "/home/gadgil/.ivy2/cache/org.scala-sbt/zinc-compile_2.12/jars/zinc-compile_2.12-1.2.5.jar"
        ],
        "out" : "/home/gadgil/code/ProvingGround/project/.bloop/provingground-build",
        "classesDir" : "/home/gadgil/code/ProvingGround/project/.bloop/provingground-build/scala-2.12/sbt-1.0/classes",
        "resources" : [
            "/home/gadgil/code/ProvingGround/project/src/main/resources",
            "/home/gadgil/code/ProvingGround/project/target/scala-2.12/sbt-1.0/resource_managed/main"
        ],
        "scala" : {
            "organization" : "org.scala-lang",
            "name" : "scala-compiler",
            "version" : "2.12.7",
            "options" : [
                "-deprecation"
            ],
            "jars" : [
                "/home/gadgil/.sbt/boot/scala-2.12.7/lib/scala-library.jar",
                "/home/gadgil/.sbt/boot/scala-2.12.7/lib/jline.jar",
                "/home/gadgil/.sbt/boot/scala-2.12.7/lib/scala-compiler.jar",
                "/home/gadgil/.sbt/boot/scala-2.12.7/lib/scala-reflect.jar",
                "/home/gadgil/.sbt/boot/scala-2.12.7/lib/scala-xml_2.12.jar"
            ],
            "setup" : {
                "order" : "mixed",
                "addLibraryToBootClasspath" : true,
                "addCompilerToClasspath" : false,
                "addExtraJarsToClasspath" : false,
                "manageBootClasspath" : true,
                "filterLibraryFromClasspath" : true
            }
        },
        "java" : {
            "options" : [
            ]
        },
        "sbt" : {
            "sbtVersion" : "1.2.8",
            "autoImports" : [
                "import _root_.scala.xml.{TopScope=>$scope}",
                "import _root_.sbt._",
                "import _root_.sbt.Keys._",
                "import _root_.sbt.ScriptedPlugin.autoImport._, _root_.bloop.integrations.sbt.BloopPlugin.autoImport._, _root_.org.scalajs.jsdependencies.sbtplugin.JSDependenciesPlugin.autoImport._, _root_.org.scalajs.sbtplugin.ScalaJSPlugin.autoImport._, _root_.org.portablescala.sbtplatformdeps.PlatformDepsPlugin.autoImport._, _root_.scalajscrossproject.ScalaJSCrossPlugin.autoImport._, _root_.sbtcrossproject.CrossPlugin.autoImport._, _root_.sbtassembly.AssemblyPlugin.autoImport._",
                "import _root_.sbt.plugins.IvyPlugin, _root_.sbt.plugins.JvmPlugin, _root_.sbt.plugins.CorePlugin, _root_.sbt.ScriptedPlugin, _root_.sbt.plugins.SbtPlugin, _root_.sbt.plugins.JUnitXmlReportPlugin, _root_.sbt.plugins.Giter8TemplatePlugin, _root_.scala.meta.metals.MetalsPlugin, _root_.bloop.integrations.sbt.BloopPlugin, _root_.org.scalajs.jsdependencies.sbtplugin.JSDependenciesPlugin, _root_.org.scalajs.sbtplugin.ScalaJSJUnitPlugin, _root_.org.scalajs.sbtplugin.ScalaJSPlugin, _root_.org.scalajs.sbtplugin.internal.ScalaJSGlobalPlugin, _root_.org.portablescala.sbtplatformdeps.PlatformDepsPlugin, _root_.scalajscrossproject.ScalaJSCrossPlugin, _root_.sbtcrossproject.CrossPlugin, _root_.sbtassembly.AssemblyPlugin"
            ]
        },
        "test" : {
            "frameworks" : [
                {
                    "names" : [
                        "org.scalacheck.ScalaCheckFramework"
                    ]
                },
                {
                    "names" : [
                        "org.specs2.runner.Specs2Framework",
                        "org.specs2.runner.SpecsFramework"
                    ]
                },
                {
                    "names" : [
                        "org.specs.runner.SpecsFramework"
                    ]
                },
                {
                    "names" : [
                        "org.scalatest.tools.Framework",
                        "org.scalatest.tools.ScalaTestFramework"
                    ]
                },
                {
                    "names" : [
                        "com.novocode.junit.JUnitFramework"
                    ]
                }
            ],
            "options" : {
                "excludes" : [
                ],
                "arguments" : [
                ]
            }
        },
        "platform" : {
            "name" : "jvm",
            "config" : {
                "home" : "/usr/lib/jvm/java-8-oracle/jre",
                "options" : [
                ]
            },
            "mainClass" : [
            ]
        },
        "resolution" : {
            "modules" : [
                {
                    "organization" : "org.scalameta",
                    "name" : "sbt-metals",
                    "version" : "0.7.6",
                    "artifacts" : [
                        {
                            "name" : "sbt-metals",
                            "path" : "/home/gadgil/.ivy2/cache/scala_2.12/sbt_1.0/org.scalameta/sbt-metals/jars/sbt-metals-0.7.6.jar"
                        }
                    ]
                },
                {
                    "organization" : "org.scala-js",
                    "name" : "sbt-scalajs",
                    "version" : "0.6.31",
                    "artifacts" : [
                        {
                            "name" : "sbt-scalajs",
                            "path" : "/home/gadgil/.ivy2/cache/scala_2.12/sbt_1.0/org.scala-js/sbt-scalajs/jars/sbt-scalajs-0.6.31.jar"
                        }
                    ]
                },
                {
                    "organization" : "org.scala-js",
                    "name" : "scalajs-tools_2.12",
                    "version" : "0.6.31",
                    "artifacts" : [
                        {
                            "name" : "scalajs-tools_2.12",
                            "path" : "/home/gadgil/.ivy2/cache/org.scala-js/scalajs-tools_2.12/jars/scalajs-tools_2.12-0.6.31.jar"
                        }
                    ]
                },
                {
                    "organization" : "org.scala-lang",
                    "name" : "scala-library",
                    "version" : "2.12.7",
                    "artifacts" : [
                        {
                            "name" : "scala-library",
                            "path" : "/home/gadgil/.sbt/boot/scala-2.12.7/lib/scala-library.jar"
                        }
                    ]
                },
                {
                    "organization" : "org.scala-js",
                    "name" : "scalajs-ir_2.12",
                    "version" : "0.6.31",
                    "artifacts" : [
                        {
                            "name" : "scalajs-ir_2.12",
                            "path" : "/home/gadgil/.ivy2/cache/org.scala-js/scalajs-ir_2.12/jars/scalajs-ir_2.12-0.6.31.jar"
                        }
                    ]
                },
                {
                    "organization" : "com.google.javascript",
                    "name" : "closure-compiler",
                    "version" : "v20190513",
                    "artifacts" : [
                        {
                            "name" : "closure-compiler",
                            "path" : "/home/gadgil/.ivy2/cache/com.google.javascript/closure-compiler/jars/closure-compiler-v20190513.jar"
                        }
                    ]
                },
                {
                    "organization" : "com.google.javascript",
                    "name" : "closure-compiler-externs",
                    "version" : "v20190513",
                    "artifacts" : [
                        {
                            "name" : "closure-compiler-externs",
                            "path" : "/home/gadgil/.ivy2/cache/com.google.javascript/closure-compiler-externs/jars/closure-compiler-externs-v20190513.jar"
                        }
                    ]
                },
                {
                    "organization" : "args4j",
                    "name" : "args4j",
                    "version" : "2.0.26",
                    "artifacts" : [
                        {
                            "name" : "args4j",
                            "path" : "/home/gadgil/.ivy2/cache/args4j/args4j/bundles/args4j-2.0.26.jar"
                        }
                    ]
                },
                {
                    "organization" : "com.google.errorprone",
                    "name" : "error_prone_annotations",
                    "version" : "2.3.1",
                    "artifacts" : [
                        {
                            "name" : "error_prone_annotations",
                            "path" : "/home/gadgil/.ivy2/cache/com.google.errorprone/error_prone_annotations/jars/error_prone_annotations-2.3.1.jar"
                        }
                    ]
                },
                {
                    "organization" : "com.google.guava",
                    "name" : "guava",
                    "version" : "25.1-jre",
                    "artifacts" : [
                        {
                            "name" : "guava",
                            "path" : "/home/gadgil/.ivy2/cache/com.google.guava/guava/bundles/guava-25.1-jre.jar"
                        }
                    ]
                },
                {
                    "organization" : "org.checkerframework",
                    "name" : "checker-qual",
                    "version" : "2.0.0",
                    "artifacts" : [
                        {
                            "name" : "checker-qual",
                            "path" : "/home/gadgil/.ivy2/cache/org.checkerframework/checker-qual/jars/checker-qual-2.0.0.jar"
                        }
                    ]
                },
                {
                    "organization" : "com.google.j2objc",
                    "name" : "j2objc-annotations",
                    "version" : "1.1",
                    "artifacts" : [
                        {
                            "name" : "j2objc-annotations",
                            "path" : "/home/gadgil/.ivy2/cache/com.google.j2objc/j2objc-annotations/jars/j2objc-annotations-1.1.jar"
                        }
                    ]
                },
                {
                    "organization" : "org.codehaus.mojo",
                    "name" : "animal-sniffer-annotations",
                    "version" : "1.14",
                    "artifacts" : [
                        {
                            "name" : "animal-sniffer-annotations",
                            "path" : "/home/gadgil/.ivy2/cache/org.codehaus.mojo/animal-sniffer-annotations/jars/animal-sniffer-annotations-1.14.jar"
                        }
                    ]
                },
                {
                    "organization" : "com.google.code.gson",
                    "name" : "gson",
                    "version" : "2.7",
                    "artifacts" : [
                        {
                            "name" : "gson",
                            "path" : "/home/gadgil/.ivy2/cache/com.google.code.gson/gson/jars/gson-2.7.jar"
                        }
                    ]
                },
                {
                    "organization" : "com.google.jsinterop",
                    "name" : "jsinterop-annotations",
                    "version" : "1.0.0",
                    "artifacts" : [
                        {
                            "name" : "jsinterop-annotations",
                            "path" : "/home/gadgil/.ivy2/cache/com.google.jsinterop/jsinterop-annotations/jars/jsinterop-annotations-1.0.0.jar"
                        }
                    ]
                },
                {
                    "organization" : "com.googlecode.json-simple",
                    "name" : "json-simple",
                    "version" : "1.1.1",
                    "artifacts" : [
                        {
                            "name" : "json-simple",
                            "path" : "/home/gadgil/.ivy2/cache/com.googlecode.json-simple/json-simple/bundles/json-simple-1.1.1.jar"
                        }
                    ]
                },
                {
                    "organization" : "org.scala-js",
                    "name" : "scalajs-js-envs_2.12",
                    "version" : "0.6.31",
                    "artifacts" : [
                        {
                            "name" : "scalajs-js-envs_2.12",
                            "path" : "/home/gadgil/.ivy2/cache/org.scala-js/scalajs-js-envs_2.12/jars/scalajs-js-envs_2.12-0.6.31.jar"
                        }
                    ]
                },
                {
                    "organization" : "org.mozilla",
                    "name" : "rhino",
                    "version" : "1.7.6",
                    "artifacts" : [
                        {
                            "name" : "rhino",
                            "path" : "/home/gadgil/.ivy2/cache/org.mozilla/rhino/jars/rhino-1.7.6.jar"
                        }
                    ]
                },
                {
                    "organization" : "org.webjars",
                    "name" : "envjs",
                    "version" : "1.2",
                    "artifacts" : [
                        {
                            "name" : "envjs",
                            "path" : "/home/gadgil/.ivy2/cache/org.webjars/envjs/jars/envjs-1.2.jar"
                        }
                    ]
                },
                {
                    "organization" : "org.scala-js",
                    "name" : "scalajs-sbt-test-adapter_2.12",
                    "version" : "0.6.31",
                    "artifacts" : [
                        {
                            "name" : "scalajs-sbt-test-adapter_2.12",
                            "path" : "/home/gadgil/.ivy2/cache/org.scala-js/scalajs-sbt-test-adapter_2.12/jars/scalajs-sbt-test-adapter_2.12-0.6.31.jar"
                        }
                    ]
                },
                {
                    "organization" : "org.scala-sbt",
                    "name" : "test-interface",
                    "version" : "1.0",
                    "artifacts" : [
                        {
                            "name" : "test-interface",
                            "path" : "/home/gadgil/.ivy2/cache/org.scala-sbt/test-interface/jars/test-interface-1.0.jar"
                        }
                    ]
                },
                {
                    "organization" : "org.portable-scala",
                    "name" : "sbt-platform-deps",
                    "version" : "1.0.0",
                    "artifacts" : [
                        {
                            "name" : "sbt-platform-deps",
                            "path" : "/home/gadgil/.ivy2/cache/scala_2.12/sbt_1.0/org.portable-scala/sbt-platform-deps/jars/sbt-platform-deps-1.0.0.jar"
                        }
                    ]
                },
                {
                    "organization" : "org.portable-scala",
                    "name" : "sbt-scalajs-crossproject",
                    "version" : "0.6.0",
                    "artifacts" : [
                        {
                            "name" : "sbt-scalajs-crossproject",
                            "path" : "/home/gadgil/.ivy2/cache/scala_2.12/sbt_1.0/org.portable-scala/sbt-scalajs-crossproject/jars/sbt-scalajs-crossproject-0.6.0.jar"
                        }
                    ]
                },
                {
                    "organization" : "org.portable-scala",
                    "name" : "sbt-crossproject",
                    "version" : "0.6.0",
                    "artifacts" : [
                        {
                            "name" : "sbt-crossproject",
                            "path" : "/home/gadgil/.ivy2/cache/scala_2.12/sbt_1.0/org.portable-scala/sbt-crossproject/jars/sbt-crossproject-0.6.0.jar"
                        }
                    ]
                },
                {
                    "organization" : "ch.epfl.scala",
                    "name" : "sbt-bloop",
                    "version" : "1.4.0-RC1",
                    "artifacts" : [
                        {
                            "name" : "sbt-bloop",
                            "path" : "/home/gadgil/.ivy2/cache/scala_2.12/sbt_1.0/ch.epfl.scala/sbt-bloop/jars/sbt-bloop-1.4.0-RC1.jar"
                        }
                    ]
                },
                {
                    "organization" : "net.java.dev.jna",
                    "name" : "jna",
                    "version" : "4.5.0",
                    "artifacts" : [
                        {
                            "name" : "jna",
                            "path" : "/home/gadgil/.ivy2/cache/net.java.dev.jna/jna/jars/jna-4.5.0.jar"
                        }
                    ]
                },
                {
                    "organization" : "net.java.dev.jna",
                    "name" : "jna-platform",
                    "version" : "4.5.0",
                    "artifacts" : [
                        {
                            "name" : "jna-platform",
                            "path" : "/home/gadgil/.ivy2/cache/net.java.dev.jna/jna-platform/jars/jna-platform-4.5.0.jar"
                        }
                    ]
                },
                {
                    "organization" : "com.eed3si9n",
                    "name" : "sbt-assembly",
                    "version" : "0.14.5",
                    "artifacts" : [
                        {
                            "name" : "sbt-assembly",
                            "path" : "/home/gadgil/.ivy2/cache/scala_2.12/sbt_1.0/com.eed3si9n/sbt-assembly/jars/sbt-assembly-0.14.5.jar"
                        }
                    ]
                },
                {
                    "organization" : "org.scalactic",
                    "name" : "scalactic_2.12",
                    "version" : "3.0.1",
                    "artifacts" : [
                        {
                            "name" : "scalactic_2.12",
                            "path" : "/home/gadgil/.ivy2/cache/org.scalactic/scalactic_2.12/bundles/scalactic_2.12-3.0.1.jar"
                        }
                    ]
                },
                {
                    "organization" : "org.scala-lang",
                    "name" : "scala-reflect",
                    "version" : "2.12.7",
                    "artifacts" : [
                        {
                            "name" : "scala-reflect",
                            "path" : "/home/gadgil/.sbt/boot/scala-2.12.7/lib/scala-reflect.jar"
                        }
                    ]
                },
                {
                    "organization" : "org.pantsbuild",
                    "name" : "jarjar",
                    "version" : "1.6.4",
                    "artifacts" : [
                        {
                            "name" : "jarjar",
                            "path" : "/home/gadgil/.ivy2/cache/org.pantsbuild/jarjar/jars/jarjar-1.6.4.jar"
                        }
                    ]
                },
                {
                    "organization" : "org.apache.ant",
                    "name" : "ant",
                    "version" : "1.9.9",
                    "artifacts" : [
                        {
                            "name" : "ant",
                            "path" : "/home/gadgil/.ivy2/cache/org.apache.ant/ant/jars/ant-1.9.9.jar"
                        }
                    ]
                },
                {
                    "organization" : "org.apache.ant",
                    "name" : "ant-launcher",
                    "version" : "1.9.9",
                    "artifacts" : [
                        {
                            "name" : "ant-launcher",
                            "path" : "/home/gadgil/.ivy2/cache/org.apache.ant/ant-launcher/jars/ant-launcher-1.9.9.jar"
                        }
                    ]
                },
                {
                    "organization" : "org.ow2.asm",
                    "name" : "asm",
                    "version" : "5.2",
                    "artifacts" : [
                        {
                            "name" : "asm",
                            "path" : "/home/gadgil/.ivy2/cache/org.ow2.asm/asm/jars/asm-5.2.jar"
                        }
                    ]
                },
                {
                    "organization" : "org.ow2.asm",
                    "name" : "asm-commons",
                    "version" : "5.2",
                    "artifacts" : [
                        {
                            "name" : "asm-commons",
                            "path" : "/home/gadgil/.ivy2/cache/org.ow2.asm/asm-commons/jars/asm-commons-5.2.jar"
                        }
                    ]
                },
                {
                    "organization" : "org.ow2.asm",
                    "name" : "asm-tree",
                    "version" : "5.2",
                    "artifacts" : [
                        {
                            "name" : "asm-tree",
                            "path" : "/home/gadgil/.ivy2/cache/org.ow2.asm/asm-tree/jars/asm-tree-5.2.jar"
                        }
                    ]
                },
                {
                    "organization" : "org.apache.maven",
                    "name" : "maven-plugin-api",
                    "version" : "3.3.9",
                    "artifacts" : [
                        {
                            "name" : "maven-plugin-api",
                            "path" : "/home/gadgil/.ivy2/cache/org.apache.maven/maven-plugin-api/jars/maven-plugin-api-3.3.9.jar"
                        }
                    ]
                },
                {
                    "organization" : "org.apache.maven",
                    "name" : "maven-model",
                    "version" : "3.3.9",
                    "artifacts" : [
                        {
                            "name" : "maven-model",
                            "path" : "/home/gadgil/.ivy2/cache/org.apache.maven/maven-model/jars/maven-model-3.3.9.jar"
                        }
                    ]
                },
                {
                    "organization" : "org.codehaus.plexus",
                    "name" : "plexus-utils",
                    "version" : "3.0.22",
                    "artifacts" : [
                        {
                            "name" : "plexus-utils",
                            "path" : "/home/gadgil/.ivy2/cache/org.codehaus.plexus/plexus-utils/jars/plexus-utils-3.0.22.jar"
                        }
                    ]
                },
                {
                    "organization" : "org.apache.commons",
                    "name" : "commons-lang3",
                    "version" : "3.4",
                    "artifacts" : [
                        {
                            "name" : "commons-lang3",
                            "path" : "/home/gadgil/.ivy2/cache/org.apache.commons/commons-lang3/jars/commons-lang3-3.4.jar"
                        }
                    ]
                },
                {
                    "organization" : "org.apache.maven",
                    "name" : "maven-artifact",
                    "version" : "3.3.9",
                    "artifacts" : [
                        {
                            "name" : "maven-artifact",
                            "path" : "/home/gadgil/.ivy2/cache/org.apache.maven/maven-artifact/jars/maven-artifact-3.3.9.jar"
                        }
                    ]
                },
                {
                    "organization" : "org.eclipse.sisu",
                    "name" : "org.eclipse.sisu.plexus",
                    "version" : "0.3.2",
                    "artifacts" : [
                        {
                            "name" : "org.eclipse.sisu.plexus",
                            "path" : "/home/gadgil/.ivy2/cache/org.eclipse.sisu/org.eclipse.sisu.plexus/eclipse-plugins/org.eclipse.sisu.plexus-0.3.2.jar"
                        }
                    ]
                },
                {
                    "organization" : "javax.enterprise",
                    "name" : "cdi-api",
                    "version" : "1.0",
                    "artifacts" : [
                        {
                            "name" : "cdi-api",
                            "path" : "/home/gadgil/.ivy2/cache/javax.enterprise/cdi-api/jars/cdi-api-1.0.jar"
                        }
                    ]
                },
                {
                    "organization" : "javax.annotation",
                    "name" : "jsr250-api",
                    "version" : "1.0",
                    "artifacts" : [
                        {
                            "name" : "jsr250-api",
                            "path" : "/home/gadgil/.ivy2/cache/javax.annotation/jsr250-api/jars/jsr250-api-1.0.jar"
                        }
                    ]
                },
                {
                    "organization" : "javax.inject",
                    "name" : "javax.inject",
                    "version" : "1",
                    "artifacts" : [
                        {
                            "name" : "javax.inject",
                            "path" : "/home/gadgil/.ivy2/cache/javax.inject/javax.inject/jars/javax.inject-1.jar"
                        }
                    ]
                },
                {
                    "organization" : "org.eclipse.sisu",
                    "name" : "org.eclipse.sisu.inject",
                    "version" : "0.3.2",
                    "artifacts" : [
                        {
                            "name" : "org.eclipse.sisu.inject",
                            "path" : "/home/gadgil/.ivy2/cache/org.eclipse.sisu/org.eclipse.sisu.inject/eclipse-plugins/org.eclipse.sisu.inject-0.3.2.jar"
                        }
                    ]
                },
                {
                    "organization" : "org.codehaus.plexus",
                    "name" : "plexus-component-annotations",
                    "version" : "1.5.5",
                    "artifacts" : [
                        {
                            "name" : "plexus-component-annotations",
                            "path" : "/home/gadgil/.ivy2/cache/org.codehaus.plexus/plexus-component-annotations/jars/plexus-component-annotations-1.5.5.jar"
                        }
                    ]
                },
                {
                    "organization" : "org.codehaus.plexus",
                    "name" : "plexus-classworlds",
                    "version" : "2.5.2",
                    "artifacts" : [
                        {
                            "name" : "plexus-classworlds",
                            "path" : "/home/gadgil/.ivy2/cache/org.codehaus.plexus/plexus-classworlds/bundles/plexus-classworlds-2.5.2.jar"
                        }
                    ]
                },
                {
                    "organization" : "com.google.code.findbugs",
                    "name" : "jsr305",
                    "version" : "3.0.2",
                    "artifacts" : [
                        {
                            "name" : "jsr305",
                            "path" : "/home/gadgil/.ivy2/cache/com.google.code.findbugs/jsr305/jars/jsr305-3.0.2.jar"
                        }
                    ]
                },
                {
                    "organization" : "org.scala-sbt",
                    "name" : "sbt",
                    "version" : "1.2.8",
                    "artifacts" : [
                        {
                            "name" : "sbt",
                            "path" : "/home/gadgil/.ivy2/cache/org.scala-sbt/sbt/jars/sbt-1.2.8.jar"
                        }
                    ]
                },
                {
                    "organization" : "org.scala-sbt",
                    "name" : "main_2.12",
                    "version" : "1.2.8",
                    "artifacts" : [
                        {
                            "name" : "main_2.12",
                            "path" : "/home/gadgil/.ivy2/cache/org.scala-sbt/main_2.12/jars/main_2.12-1.2.8.jar"
                        }
                    ]
                },
                {
                    "organization" : "org.scala-sbt",
                    "name" : "logic_2.12",
                    "version" : "1.2.8",
                    "artifacts" : [
                        {
                            "name" : "logic_2.12",
                            "path" : "/home/gadgil/.ivy2/cache/org.scala-sbt/logic_2.12/jars/logic_2.12-1.2.8.jar"
                        }
                    ]
                },
                {
                    "organization" : "org.scala-sbt",
                    "name" : "collections_2.12",
                    "version" : "1.2.8",
                    "artifacts" : [
                        {
                            "name" : "collections_2.12",
                            "path" : "/home/gadgil/.ivy2/cache/org.scala-sbt/collections_2.12/jars/collections_2.12-1.2.8.jar"
                        }
                    ]
                },
                {
                    "organization" : "com.eed3si9n",
                    "name" : "sjson-new-scalajson_2.12",
                    "version" : "0.8.2",
                    "artifacts" : [
                        {
                            "name" : "sjson-new-scalajson_2.12",
                            "path" : "/home/gadgil/.ivy2/cache/com.eed3si9n/sjson-new-scalajson_2.12/jars/sjson-new-scalajson_2.12-0.8.2.jar"
                        }
                    ]
                },
                {
                    "organization" : "com.eed3si9n",
                    "name" : "sjson-new-core_2.12",
                    "version" : "0.8.2",
                    "artifacts" : [
                        {
                            "name" : "sjson-new-core_2.12",
                            "path" : "/home/gadgil/.ivy2/cache/com.eed3si9n/sjson-new-core_2.12/jars/sjson-new-core_2.12-0.8.2.jar"
                        }
                    ]
                },
                {
                    "organization" : "com.eed3si9n",
                    "name" : "shaded-scalajson_2.12",
                    "version" : "1.0.0-M4",
                    "artifacts" : [
                        {
                            "name" : "shaded-scalajson_2.12",
                            "path" : "/home/gadgil/.ivy2/cache/com.eed3si9n/shaded-scalajson_2.12/jars/shaded-scalajson_2.12-1.0.0-M4.jar"
                        }
                    ]
                },
                {
                    "organization" : "org.spire-math",
                    "name" : "jawn-parser_2.12",
                    "version" : "0.10.4",
                    "artifacts" : [
                        {
                            "name" : "jawn-parser_2.12",
                            "path" : "/home/gadgil/.ivy2/cache/org.spire-math/jawn-parser_2.12/jars/jawn-parser_2.12-0.10.4.jar"
                        }
                    ]
                },
                {
                    "organization" : "org.scala-sbt",
                    "name" : "util-position_2.12",
                    "version" : "1.2.4",
                    "artifacts" : [
                        {
                            "name" : "util-position_2.12",
                            "path" : "/home/gadgil/.ivy2/cache/org.scala-sbt/util-position_2.12/jars/util-position_2.12-1.2.4.jar"
                        }
                    ]
                },
                {
                    "organization" : "org.scala-sbt",
                    "name" : "util-relation_2.12",
                    "version" : "1.2.4",
                    "artifacts" : [
                        {
                            "name" : "util-relation_2.12",
                            "path" : "/home/gadgil/.ivy2/cache/org.scala-sbt/util-relation_2.12/jars/util-relation_2.12-1.2.4.jar"
                        }
                    ]
                },
                {
                    "organization" : "org.scala-sbt",
                    "name" : "actions_2.12",
                    "version" : "1.2.8",
                    "artifacts" : [
                        {
                            "name" : "actions_2.12",
                            "path" : "/home/gadgil/.ivy2/cache/org.scala-sbt/actions_2.12/jars/actions_2.12-1.2.8.jar"
                        }
                    ]
                },
                {
                    "organization" : "org.scala-sbt",
                    "name" : "completion_2.12",
                    "version" : "1.2.8",
                    "artifacts" : [
                        {
                            "name" : "completion_2.12",
                            "path" : "/home/gadgil/.ivy2/cache/org.scala-sbt/completion_2.12/jars/completion_2.12-1.2.8.jar"
                        }
                    ]
                },
                {
                    "organization" : "jline",
                    "name" : "jline",
                    "version" : "2.14.6",
                    "artifacts" : [
                        {
                            "name" : "jline",
                            "path" : "/home/gadgil/.ivy2/cache/jline/jline/jars/jline-2.14.6.jar"
                        }
                    ]
                },
                {
                    "organization" : "org.scala-sbt",
                    "name" : "io_2.12",
                    "version" : "1.2.2",
                    "artifacts" : [
                        {
                            "name" : "io_2.12",
                            "path" : "/home/gadgil/.ivy2/cache/org.scala-sbt/io_2.12/jars/io_2.12-1.2.2.jar"
                        }
                    ]
                },
                {
                    "organization" : "com.swoval",
                    "name" : "apple-file-events",
                    "version" : "1.3.2",
                    "artifacts" : [
                        {
                            "name" : "apple-file-events",
                            "path" : "/home/gadgil/.ivy2/cache/com.swoval/apple-file-events/jars/apple-file-events-1.3.2.jar"
                        }
                    ]
                },
                {
                    "organization" : "org.scala-sbt",
                    "name" : "util-control_2.12",
                    "version" : "1.2.4",
                    "artifacts" : [
                        {
                            "name" : "util-control_2.12",
                            "path" : "/home/gadgil/.ivy2/cache/org.scala-sbt/util-control_2.12/jars/util-control_2.12-1.2.4.jar"
                        }
                    ]
                },
                {
                    "organization" : "org.scala-sbt",
                    "name" : "run_2.12",
                    "version" : "1.2.8",
                    "artifacts" : [
                        {
                            "name" : "run_2.12",
                            "path" : "/home/gadgil/.ivy2/cache/org.scala-sbt/run_2.12/jars/run_2.12-1.2.8.jar"
                        }
                    ]
                },
                {
                    "organization" : "org.scala-sbt",
                    "name" : "util-logging_2.12",
                    "version" : "1.2.4",
                    "artifacts" : [
                        {
                            "name" : "util-logging_2.12",
                            "path" : "/home/gadgil/.ivy2/cache/org.scala-sbt/util-logging_2.12/jars/util-logging_2.12-1.2.4.jar"
                        }
                    ]
                },
                {
                    "organization" : "org.scala-sbt",
                    "name" : "util-interface",
                    "version" : "1.2.4",
                    "artifacts" : [
                        {
                            "name" : "util-interface",
                            "path" : "/home/gadgil/.ivy2/cache/org.scala-sbt/util-interface/jars/util-interface-1.2.4.jar"
                        }
                    ]
                },
                {
                    "organization" : "org.apache.logging.log4j",
                    "name" : "log4j-api",
                    "version" : "2.11.1",
                    "artifacts" : [
                        {
                            "name" : "log4j-api",
                            "path" : "/home/gadgil/.ivy2/cache/org.apache.logging.log4j/log4j-api/jars/log4j-api-2.11.1.jar"
                        }
                    ]
                },
                {
                    "organization" : "org.apache.logging.log4j",
                    "name" : "log4j-core",
                    "version" : "2.11.1",
                    "artifacts" : [
                        {
                            "name" : "log4j-core",
                            "path" : "/home/gadgil/.ivy2/cache/org.apache.logging.log4j/log4j-core/jars/log4j-core-2.11.1.jar"
                        },
                        {
                            "name" : "log4j-core",
                            "classifier" : "tests",
                            "path" : "/home/gadgil/.ivy2/cache/org.apache.logging.log4j/log4j-core/test-jars/log4j-core-2.11.1-tests.jar"
                        }
                    ]
                },
                {
                    "organization" : "com.lmax",
                    "name" : "disruptor",
                    "version" : "3.4.2",
                    "artifacts" : [
                        {
                            "name" : "disruptor",
                            "path" : "/home/gadgil/.ivy2/cache/com.lmax/disruptor/jars/disruptor-3.4.2.jar"
                        }
                    ]
                },
                {
                    "organization" : "org.scala-sbt",
                    "name" : "zinc-classpath_2.12",
                    "version" : "1.2.5",
                    "artifacts" : [
                        {
                            "name" : "zinc-classpath_2.12",
                            "path" : "/home/gadgil/.ivy2/cache/org.scala-sbt/zinc-classpath_2.12/jars/zinc-classpath_2.12-1.2.5.jar"
                        }
                    ]
                },
                {
                    "organization" : "org.scala-lang",
                    "name" : "scala-compiler",
                    "version" : "2.12.7",
                    "artifacts" : [
                        {
                            "name" : "scala-compiler",
                            "path" : "/home/gadgil/.sbt/boot/scala-2.12.7/lib/scala-compiler.jar"
                        }
                    ]
                },
                {
                    "organization" : "org.scala-lang.modules",
                    "name" : "scala-xml_2.12",
                    "version" : "1.0.6",
                    "artifacts" : [
                        {
                            "name" : "scala-xml_2.12",
                            "path" : "/home/gadgil/.ivy2/cache/org.scala-lang.modules/scala-xml_2.12/bundles/scala-xml_2.12-1.0.6.jar"
                        }
                    ]
                },
                {
                    "organization" : "org.scala-sbt",
                    "name" : "compiler-interface",
                    "version" : "1.2.5",
                    "artifacts" : [
                        {
                            "name" : "compiler-interface",
                            "path" : "/home/gadgil/.ivy2/cache/org.scala-sbt/compiler-interface/jars/compiler-interface-1.2.5.jar"
                        }
                    ]
                },
                {
                    "organization" : "org.scala-sbt",
                    "name" : "task-system_2.12",
                    "version" : "1.2.8",
                    "artifacts" : [
                        {
                            "name" : "task-system_2.12",
                            "path" : "/home/gadgil/.ivy2/cache/org.scala-sbt/task-system_2.12/jars/task-system_2.12-1.2.8.jar"
                        }
                    ]
                },
                {
                    "organization" : "org.scala-sbt",
                    "name" : "tasks_2.12",
                    "version" : "1.2.8",
                    "artifacts" : [
                        {
                            "name" : "tasks_2.12",
                            "path" : "/home/gadgil/.ivy2/cache/org.scala-sbt/tasks_2.12/jars/tasks_2.12-1.2.8.jar"
                        }
                    ]
                },
                {
                    "organization" : "org.scala-sbt",
                    "name" : "util-cache_2.12",
                    "version" : "1.2.4",
                    "artifacts" : [
                        {
                            "name" : "util-cache_2.12",
                            "path" : "/home/gadgil/.ivy2/cache/org.scala-sbt/util-cache_2.12/jars/util-cache_2.12-1.2.4.jar"
                        }
                    ]
                },
                {
                    "organization" : "com.eed3si9n",
                    "name" : "sjson-new-murmurhash_2.12",
                    "version" : "0.8.2",
                    "artifacts" : [
                        {
                            "name" : "sjson-new-murmurhash_2.12",
                            "path" : "/home/gadgil/.ivy2/cache/com.eed3si9n/sjson-new-murmurhash_2.12/jars/sjson-new-murmurhash_2.12-0.8.2.jar"
                        }
                    ]
                },
                {
                    "organization" : "org.scala-sbt",
                    "name" : "testing_2.12",
                    "version" : "1.2.8",
                    "artifacts" : [
                        {
                            "name" : "testing_2.12",
                            "path" : "/home/gadgil/.ivy2/cache/org.scala-sbt/testing_2.12/jars/testing_2.12-1.2.8.jar"
                        }
                    ]
                },
                {
                    "organization" : "org.scala-sbt",
                    "name" : "test-agent",
                    "version" : "1.2.8",
                    "artifacts" : [
                        {
                            "name" : "test-agent",
                            "path" : "/home/gadgil/.ivy2/cache/org.scala-sbt/test-agent/jars/test-agent-1.2.8.jar"
                        }
                    ]
                },
                {
                    "organization" : "org.scala-sbt",
                    "name" : "launcher-interface",
                    "version" : "1.0.4",
                    "artifacts" : [
                        {
                            "name" : "launcher-interface",
                            "path" : "/home/gadgil/.ivy2/cache/org.scala-sbt/launcher-interface/jars/launcher-interface-1.0.4.jar"
                        }
                    ]
                },
                {
                    "organization" : "org.scala-sbt",
                    "name" : "util-tracking_2.12",
                    "version" : "1.2.4",
                    "artifacts" : [
                        {
                            "name" : "util-tracking_2.12",
                            "path" : "/home/gadgil/.ivy2/cache/org.scala-sbt/util-tracking_2.12/jars/util-tracking_2.12-1.2.4.jar"
                        }
                    ]
                },
                {
                    "organization" : "org.scala-sbt",
                    "name" : "zinc-apiinfo_2.12",
                    "version" : "1.2.5",
                    "artifacts" : [
                        {
                            "name" : "zinc-apiinfo_2.12",
                            "path" : "/home/gadgil/.ivy2/cache/org.scala-sbt/zinc-apiinfo_2.12/jars/zinc-apiinfo_2.12-1.2.5.jar"
                        }
                    ]
                },
                {
                    "organization" : "org.scala-sbt",
                    "name" : "compiler-bridge_2.12",
                    "version" : "1.2.5",
                    "artifacts" : [
                        {
                            "name" : "compiler-bridge_2.12",
                            "path" : "/home/gadgil/.ivy2/cache/org.scala-sbt/compiler-bridge_2.12/jars/compiler-bridge_2.12-1.2.5.jar"
                        }
                    ]
                },
                {
                    "organization" : "org.scala-sbt",
                    "name" : "zinc-classfile_2.12",
                    "version" : "1.2.5",
                    "artifacts" : [
                        {
                            "name" : "zinc-classfile_2.12",
                            "path" : "/home/gadgil/.ivy2/cache/org.scala-sbt/zinc-classfile_2.12/jars/zinc-classfile_2.12-1.2.5.jar"
                        }
                    ]
                },
                {
                    "organization" : "org.scala-sbt",
                    "name" : "librarymanagement-core_2.12",
                    "version" : "1.2.4",
                    "artifacts" : [
                        {
                            "name" : "librarymanagement-core_2.12",
                            "path" : "/home/gadgil/.ivy2/cache/org.scala-sbt/librarymanagement-core_2.12/jars/librarymanagement-core_2.12-1.2.4.jar"
                        }
                    ]
                },
                {
                    "organization" : "com.jcraft",
                    "name" : "jsch",
                    "version" : "0.1.54",
                    "artifacts" : [
                        {
                            "name" : "jsch",
                            "path" : "/home/gadgil/.ivy2/cache/com.jcraft/jsch/jars/jsch-0.1.54.jar"
                        }
                    ]
                },
                {
                    "organization" : "com.eed3si9n",
                    "name" : "gigahorse-okhttp_2.12",
                    "version" : "0.3.0",
                    "artifacts" : [
                        {
                            "name" : "gigahorse-okhttp_2.12",
                            "path" : "/home/gadgil/.ivy2/cache/com.eed3si9n/gigahorse-okhttp_2.12/jars/gigahorse-okhttp_2.12-0.3.0.jar"
                        }
                    ]
                },
                {
                    "organization" : "com.eed3si9n",
                    "name" : "gigahorse-core_2.12",
                    "version" : "0.3.0",
                    "artifacts" : [
                        {
                            "name" : "gigahorse-core_2.12",
                            "path" : "/home/gadgil/.ivy2/cache/com.eed3si9n/gigahorse-core_2.12/jars/gigahorse-core_2.12-0.3.0.jar"
                        }
                    ]
                },
                {
                    "organization" : "com.typesafe",
                    "name" : "ssl-config-core_2.12",
                    "version" : "0.2.2",
                    "artifacts" : [
                        {
                            "name" : "ssl-config-core_2.12",
                            "path" : "/home/gadgil/.ivy2/cache/com.typesafe/ssl-config-core_2.12/bundles/ssl-config-core_2.12-0.2.2.jar"
                        }
                    ]
                },
                {
                    "organization" : "com.typesafe",
                    "name" : "config",
                    "version" : "1.2.0",
                    "artifacts" : [
                        {
                            "name" : "config",
                            "path" : "/home/gadgil/.ivy2/cache/com.typesafe/config/bundles/config-1.2.0.jar"
                        }
                    ]
                },
                {
                    "organization" : "org.reactivestreams",
                    "name" : "reactive-streams",
                    "version" : "1.0.0",
                    "artifacts" : [
                        {
                            "name" : "reactive-streams",
                            "path" : "/home/gadgil/.ivy2/cache/org.reactivestreams/reactive-streams/jars/reactive-streams-1.0.0.jar"
                        }
                    ]
                },
                {
                    "organization" : "org.slf4j",
                    "name" : "slf4j-api",
                    "version" : "1.7.25",
                    "artifacts" : [
                        {
                            "name" : "slf4j-api",
                            "path" : "/home/gadgil/.ivy2/cache/org.slf4j/slf4j-api/jars/slf4j-api-1.7.25.jar"
                        }
                    ]
                },
                {
                    "organization" : "com.squareup.okhttp3",
                    "name" : "okhttp",
                    "version" : "3.7.0",
                    "artifacts" : [
                        {
                            "name" : "okhttp",
                            "path" : "/home/gadgil/.ivy2/cache/com.squareup.okhttp3/okhttp/jars/okhttp-3.7.0.jar"
                        }
                    ]
                },
                {
                    "organization" : "com.squareup.okio",
                    "name" : "okio",
                    "version" : "1.12.0",
                    "artifacts" : [
                        {
                            "name" : "okio",
                            "path" : "/home/gadgil/.ivy2/cache/com.squareup.okio/okio/jars/okio-1.12.0.jar"
                        }
                    ]
                },
                {
                    "organization" : "com.squareup.okhttp3",
                    "name" : "okhttp-urlconnection",
                    "version" : "3.7.0",
                    "artifacts" : [
                        {
                            "name" : "okhttp-urlconnection",
                            "path" : "/home/gadgil/.ivy2/cache/com.squareup.okhttp3/okhttp-urlconnection/jars/okhttp-urlconnection-3.7.0.jar"
                        }
                    ]
                },
                {
                    "organization" : "org.scala-sbt",
                    "name" : "zinc-ivy-integration_2.12",
                    "version" : "1.2.5",
                    "artifacts" : [
                        {
                            "name" : "zinc-ivy-integration_2.12",
                            "path" : "/home/gadgil/.ivy2/cache/org.scala-sbt/zinc-ivy-integration_2.12/jars/zinc-ivy-integration_2.12-1.2.5.jar"
                        }
                    ]
                },
                {
                    "organization" : "org.scala-sbt",
                    "name" : "zinc-compile-core_2.12",
                    "version" : "1.2.5",
                    "artifacts" : [
                        {
                            "name" : "zinc-compile-core_2.12",
                            "path" : "/home/gadgil/.ivy2/cache/org.scala-sbt/zinc-compile-core_2.12/jars/zinc-compile-core_2.12-1.2.5.jar"
                        }
                    ]
                },
                {
                    "organization" : "org.scala-lang.modules",
                    "name" : "scala-parser-combinators_2.12",
                    "version" : "1.0.5",
                    "artifacts" : [
                        {
                            "name" : "scala-parser-combinators_2.12",
                            "path" : "/home/gadgil/.ivy2/cache/org.scala-lang.modules/scala-parser-combinators_2.12/bundles/scala-parser-combinators_2.12-1.0.5.jar"
                        }
                    ]
                },
                {
                    "organization" : "org.scala-sbt",
                    "name" : "zinc_2.12",
                    "version" : "1.2.5",
                    "artifacts" : [
                        {
                            "name" : "zinc_2.12",
                            "path" : "/home/gadgil/.ivy2/cache/org.scala-sbt/zinc_2.12/jars/zinc_2.12-1.2.5.jar"
                        }
                    ]
                },
                {
                    "organization" : "org.scala-sbt",
                    "name" : "zinc-core_2.12",
                    "version" : "1.2.5",
                    "artifacts" : [
                        {
                            "name" : "zinc-core_2.12",
                            "path" : "/home/gadgil/.ivy2/cache/org.scala-sbt/zinc-core_2.12/jars/zinc-core_2.12-1.2.5.jar"
                        }
                    ]
                },
                {
                    "organization" : "org.scala-sbt",
                    "name" : "zinc-persist_2.12",
                    "version" : "1.2.5",
                    "artifacts" : [
                        {
                            "name" : "zinc-persist_2.12",
                            "path" : "/home/gadgil/.ivy2/cache/org.scala-sbt/zinc-persist_2.12/jars/zinc-persist_2.12-1.2.5.jar"
                        }
                    ]
                },
                {
                    "organization" : "com.trueaccord.scalapb",
                    "name" : "scalapb-runtime_2.12",
                    "version" : "0.6.0",
                    "artifacts" : [
                        {
                            "name" : "scalapb-runtime_2.12",
                            "path" : "/home/gadgil/.ivy2/cache/com.trueaccord.scalapb/scalapb-runtime_2.12/jars/scalapb-runtime_2.12-0.6.0.jar"
                        }
                    ]
                },
                {
                    "organization" : "com.trueaccord.lenses",
                    "name" : "lenses_2.12",
                    "version" : "0.4.12",
                    "artifacts" : [
                        {
                            "name" : "lenses_2.12",
                            "path" : "/home/gadgil/.ivy2/cache/com.trueaccord.lenses/lenses_2.12/jars/lenses_2.12-0.4.12.jar"
                        }
                    ]
                },
                {
                    "organization" : "com.lihaoyi",
                    "name" : "fastparse_2.12",
                    "version" : "0.4.2",
                    "artifacts" : [
                        {
                            "name" : "fastparse_2.12",
                            "path" : "/home/gadgil/.ivy2/cache/com.lihaoyi/fastparse_2.12/jars/fastparse_2.12-0.4.2.jar"
                        }
                    ]
                },
                {
                    "organization" : "com.lihaoyi",
                    "name" : "fastparse-utils_2.12",
                    "version" : "0.4.2",
                    "artifacts" : [
                        {
                            "name" : "fastparse-utils_2.12",
                            "path" : "/home/gadgil/.ivy2/cache/com.lihaoyi/fastparse-utils_2.12/jars/fastparse-utils_2.12-0.4.2.jar"
                        }
                    ]
                },
                {
                    "organization" : "com.lihaoyi",
                    "name" : "sourcecode_2.12",
                    "version" : "0.1.3",
                    "artifacts" : [
                        {
                            "name" : "sourcecode_2.12",
                            "path" : "/home/gadgil/.ivy2/cache/com.lihaoyi/sourcecode_2.12/jars/sourcecode_2.12-0.1.3.jar"
                        }
                    ]
                },
                {
                    "organization" : "com.google.protobuf",
                    "name" : "protobuf-java",
                    "version" : "3.3.1",
                    "artifacts" : [
                        {
                            "name" : "protobuf-java",
                            "path" : "/home/gadgil/.ivy2/cache/com.google.protobuf/protobuf-java/bundles/protobuf-java-3.3.1.jar"
                        }
                    ]
                },
                {
                    "organization" : "org.scala-sbt",
                    "name" : "sbinary_2.12",
                    "version" : "0.5.0",
                    "artifacts" : [
                        {
                            "name" : "sbinary_2.12",
                            "path" : "/home/gadgil/.ivy2/cache/org.scala-sbt/sbinary_2.12/jars/sbinary_2.12-0.5.0.jar"
                        }
                    ]
                },
                {
                    "organization" : "org.scala-sbt",
                    "name" : "main-settings_2.12",
                    "version" : "1.2.8",
                    "artifacts" : [
                        {
                            "name" : "main-settings_2.12",
                            "path" : "/home/gadgil/.ivy2/cache/org.scala-sbt/main-settings_2.12/jars/main-settings_2.12-1.2.8.jar"
                        }
                    ]
                },
                {
                    "organization" : "org.scala-sbt",
                    "name" : "command_2.12",
                    "version" : "1.2.8",
                    "artifacts" : [
                        {
                            "name" : "command_2.12",
                            "path" : "/home/gadgil/.ivy2/cache/org.scala-sbt/command_2.12/jars/command_2.12-1.2.8.jar"
                        }
                    ]
                },
                {
                    "organization" : "org.scala-sbt",
                    "name" : "protocol_2.12",
                    "version" : "1.2.8",
                    "artifacts" : [
                        {
                            "name" : "protocol_2.12",
                            "path" : "/home/gadgil/.ivy2/cache/org.scala-sbt/protocol_2.12/jars/protocol_2.12-1.2.8.jar"
                        }
                    ]
                },
                {
                    "organization" : "org.scala-sbt.ipcsocket",
                    "name" : "ipcsocket",
                    "version" : "1.0.0",
                    "artifacts" : [
                        {
                            "name" : "ipcsocket",
                            "path" : "/home/gadgil/.ivy2/cache/org.scala-sbt.ipcsocket/ipcsocket/jars/ipcsocket-1.0.0.jar"
                        }
                    ]
                },
                {
                    "organization" : "org.scala-sbt",
                    "name" : "template-resolver",
                    "version" : "0.1",
                    "artifacts" : [
                        {
                            "name" : "template-resolver",
                            "path" : "/home/gadgil/.ivy2/cache/org.scala-sbt/template-resolver/jars/template-resolver-0.1.jar"
                        }
                    ]
                },
                {
                    "organization" : "org.scala-sbt",
                    "name" : "core-macros_2.12",
                    "version" : "1.2.8",
                    "artifacts" : [
                        {
                            "name" : "core-macros_2.12",
                            "path" : "/home/gadgil/.ivy2/cache/org.scala-sbt/core-macros_2.12/jars/core-macros_2.12-1.2.8.jar"
                        }
                    ]
                },
                {
                    "organization" : "org.scala-sbt",
                    "name" : "scripted-sbt-redux_2.12",
                    "version" : "1.2.8",
                    "artifacts" : [
                        {
                            "name" : "scripted-sbt-redux_2.12",
                            "path" : "/home/gadgil/.ivy2/cache/org.scala-sbt/scripted-sbt-redux_2.12/jars/scripted-sbt-redux_2.12-1.2.8.jar"
                        }
                    ]
                },
                {
                    "organization" : "org.scala-sbt",
                    "name" : "util-scripted_2.12",
                    "version" : "1.2.4",
                    "artifacts" : [
                        {
                            "name" : "util-scripted_2.12",
                            "path" : "/home/gadgil/.ivy2/cache/org.scala-sbt/util-scripted_2.12/jars/util-scripted_2.12-1.2.4.jar"
                        }
                    ]
                },
                {
                    "organization" : "org.scala-sbt",
                    "name" : "scripted-plugin_2.12",
                    "version" : "1.2.8",
                    "artifacts" : [
                        {
                            "name" : "scripted-plugin_2.12",
                            "path" : "/home/gadgil/.ivy2/cache/org.scala-sbt/scripted-plugin_2.12/jars/scripted-plugin_2.12-1.2.8.jar"
                        }
                    ]
                },
                {
                    "organization" : "org.apache.logging.log4j",
                    "name" : "log4j-slf4j-impl",
                    "version" : "2.11.1",
                    "artifacts" : [
                        {
                            "name" : "log4j-slf4j-impl",
                            "path" : "/home/gadgil/.ivy2/cache/org.apache.logging.log4j/log4j-slf4j-impl/jars/log4j-slf4j-impl-2.11.1.jar"
                        }
                    ]
                },
                {
                    "organization" : "com.github.cb372",
                    "name" : "scalacache-caffeine_2.12",
                    "version" : "0.20.0",
                    "artifacts" : [
                        {
                            "name" : "scalacache-caffeine_2.12",
                            "path" : "/home/gadgil/.ivy2/cache/com.github.cb372/scalacache-caffeine_2.12/jars/scalacache-caffeine_2.12-0.20.0.jar"
                        }
                    ]
                },
                {
                    "organization" : "com.github.cb372",
                    "name" : "scalacache-core_2.12",
                    "version" : "0.20.0",
                    "artifacts" : [
                        {
                            "name" : "scalacache-core_2.12",
                            "path" : "/home/gadgil/.ivy2/cache/com.github.cb372/scalacache-core_2.12/jars/scalacache-core_2.12-0.20.0.jar"
                        }
                    ]
                },
                {
                    "organization" : "com.github.ben-manes.caffeine",
                    "name" : "caffeine",
                    "version" : "2.5.6",
                    "artifacts" : [
                        {
                            "name" : "caffeine",
                            "path" : "/home/gadgil/.ivy2/cache/com.github.ben-manes.caffeine/caffeine/jars/caffeine-2.5.6.jar"
                        }
                    ]
                },
                {
                    "organization" : "org.scala-sbt",
                    "name" : "librarymanagement-ivy_2.12",
                    "version" : "1.2.4",
                    "artifacts" : [
                        {
                            "name" : "librarymanagement-ivy_2.12",
                            "path" : "/home/gadgil/.ivy2/cache/org.scala-sbt/librarymanagement-ivy_2.12/jars/librarymanagement-ivy_2.12-1.2.4.jar"
                        }
                    ]
                },
                {
                    "organization" : "org.scala-sbt.ivy",
                    "name" : "ivy",
                    "version" : "2.3.0-sbt-cb9cc189e9f3af519f9f102e6c5d446488ff6832",
                    "artifacts" : [
                        {
                            "name" : "ivy",
                            "path" : "/home/gadgil/.ivy2/cache/org.scala-sbt.ivy/ivy/jars/ivy-2.3.0-sbt-cb9cc189e9f3af519f9f102e6c5d446488ff6832.jar"
                        }
                    ]
                },
                {
                    "organization" : "org.scala-sbt",
                    "name" : "zinc-compile_2.12",
                    "version" : "1.2.5",
                    "artifacts" : [
                        {
                            "name" : "zinc-compile_2.12",
                            "path" : "/home/gadgil/.ivy2/cache/org.scala-sbt/zinc-compile_2.12/jars/zinc-compile_2.12-1.2.5.jar"
                        }
                    ]
                }
            ]
        }
    }
}